nullHolli Hebborne,hhebborne0,FZyM39tyHdha,2130.0
Phylis Piffe,ppiffe1,7fR5Sog8gP,6325.0
Eulalie Goalby,egoalby2,3bDWnbWRFe3,8780.0
Shurwood Hastin,shastin3,j7IPWxh8a,8593.0
Tatiana Sperring,tsperring4,hsLB9YB,367.0
Natka Legerwood,nlegerwood5,j4tnUV,9100.0
Elvira Danielovitch,edanielovitch6,w9hlBDgKgoA,7152.0
Ernest Gross,egross7,zYh9W3DZyEPA,2821.6859623112823
Dorothee Pindar,dpindar8,0d3TpHlWT,303.0
Obidiah Janecek,ojanecek9,HOtwAOpLrfsG,8975.0
Brendon Hearsum,bhearsuma,Gk51CkakO,1043.0
Barbe Camps,bcampsb,WEPSgvhZHU,2405.0
Aubine Jeffels,ajeffelsc,8qCBHJvlz,7054.0
Auberon Havick,ahavickd,XjLufL,3729.0
Minne Flippen,mflippene,q1fYDSZ,1387.0
Susanna Witten,swittenf,MHfUuiKpmC,8199.0
Francesca Side,fsideg,er4dENRq,452.0
Kermy Silvester,ksilvesterh,0iQX6Jrr,7313.517997353302
Hiram Souttar,hsouttari,jUCxRni8kr,4862.0
Sari Kluss,sklussj,C5iKkBr,2048.0
Tarra Astall,tastallk,oQlr9y,4330.0
Leontine Zuenelli,lzuenellil,cx2qAO,8738.0
Roarke Shillam,rshillamm,FMaweN1bDjRx,9487.0
Alister Lathwood,alathwoodn,iZImovUnUyHP,5895.0
Andie Blakeborough,ablakeborougho,P1gjHrpeg5,6703.0
Aubrie Kinleyside,akinleysidep,Krf86eTbT,9455.0
Dewie Crus,dcrusq,kV6T2tXj,9805.0
Stevy Wetherell,swetherellr,G0j1YT2hi,7062.0
Lorry Fairhurst,lfairhursts,7LqhqSZ,3436.1477989061614
Gratiana Oakhill,goakhillt,GN3zr9,5542.0
Mandi Cream,mcreamu,qByUtZbPzJi,660.0
Tarah Sturdey,tsturdeyv,34HfAIBghET5,9424.0
Marchelle Lardge,mlardgew,4127TuRGeSpW,3521.0
Libby Pottes,lpottesx,iIDjSV7,2928.0
Owen Woodcroft,owoodcrofty,64E0yIa,4316.0
Leland Gare,lgarez,vgsEOYZnkO,7976.0
Tiffy Allingham,tallingham10,RNlVxxJ6,6699.0
Letitia O'Dunniom,lodunniom11,gqyN2MCBng,5838.0
Loreen Pinchen,lpinchen12,2FV8PYmG,7172.542415754241
Karlotta Haliday,khaliday13,EUvQ2P4YnD7,7239.0
Nevil Minthorpe,nminthorpe14,rDCi9Ijb4QXW,1474.0
Kelcey Farrell,kfarrell15,uRHWHl,8738.0
Lacie Birts,lbirts16,vKQjVs3LOyA,9422.0
Hilario Gittins,hgittins17,pqEFTEX,3388.0
Moises Benko,mbenko18,niyMsMb,8742.0
Rosa Turville,rturville19,D1NQxXy,794.0
Doris Hornig,dhornig1a,Z3EuImNoTk,2055.0
Lambert Saby,lsaby1b,GGOiQhD8,1007.0
Eve Sherlock,esherlock1c,MX0NdQ9jq,5230.0
Shellie Greensides,sgreensides1d,PqfmYn3Mnr,7374.0
Faulkner Flores,fflores1e,3CggPUHe,4591.7567442898835
Tedie Bracco,tbracco1f,qYdoe27Qe,6847.0
Corey Woolcocks,cwoolcocks1g,LAx37Nh4iO,1496.0
Kessia Ackenson,kackenson1h,JJi9VRnE1c,7849.0
Zita Baseley,zbaseley1i,l7XhyCKo,8135.0
Laurette Wolvey,lwolvey1j,M9JKOAA3tHg,7422.0
Tiff Stops,tstops1k,lmipTJot,3673.0
Luis Tremoille,ltremoille1l,xSEOCNbi,7654.0
Zita Leile,zleile1m,h4huGTYS,2338.0
Kayle McIlwrick,kmcilwrick1n,BcDexsh9,3787.0
Kele Larimer,klarimer1o,6SdIs3T1M,4994.0
Hobie Crick,hcrick1p,882VLxE,2726.0
Sherye Castanie,scastanie1q,CM6Tj7vP,4428.0
Ruy Treske,rtreske1r,vqQRFsF,4426.0
Bron Jorgensen,bjorgensen1s,FxfTWIBTj1,803.0
Ruthy Askin,raskin1t,LsPh8m,2914.0
Grazia Manterfield,gmanterfield1u,OylgqVvF0R,4709.0
Caril Harbottle,charbottle1v,9jvcAA,4949.0
Mada Gomby,mgomby1w,QxtLHbJED9U,1961.0
Nestor Hukin,nhukin1x,f43BP8be,261.0
Gaven Boissieux,gboissieux1y,zCMSed7K,5676.0
Giffie Mainds,gmainds1z,itVnZ6ZTku,5462.0
Hyacinthia Tills,htills20,j3uK9i,6593.0
Cory Cumberland,ccumberland21,trhNMH4,4855.0
Roby Menere,rmenere22,haRLKfyL,1965.0
Adrienne Howlings,ahowlings23,45hgRW0bYlF,998.0
Waite Cadell,wcadell24,m5fxc2X9oxA,1758.0
Pegeen Theodore,ptheodore25,z9yCr7wy,6409.0
Bessie Munt,bmunt26,uTnV22f2vvxG,2151.0
Farris Simonazzi,fsimonazzi27,B9ylsYVxn4,6.0
Alvy Ciraldo,aciraldo28,ZVpzfHmjy,8653.0
Peyton Veale,pveale29,AuLIWoHP,4329.0
Fawne Collin,fcollin2a,9f7P0G6M4Yp,8179.0
Aleen Danton,adanton2b,uAsZ4XE,3021.0
Derby Luckett,dluckett2c,dxyEqXjbMUa,373.0
Corissa Schurig,cschurig2d,u9r0Ko3W,6714.0
Mag Husset,mhusset2e,DtzqKSXEgIu,5012.0
Joey Bruyntjes,jbruyntjes2f,Pa3EXU,6737.0
Anna-diana Wootton,awootton2g,oPkohlI81e,9486.0
Olag Coop,ocoop2h,TqR4gx,183.0
Steve Measey,smeasey2i,5Y12es1ViW,6300.0
Bradley Cubbinelli,bcubbinelli2j,JbdECEieuHS,9314.0
Mitchael Issett,missett2k,BP5x5CD,7972.0
Claribel De Ath,cde2l,0C19SCo76,6611.0
Athene Immer,aimmer2m,OPRvoZZ0pIu,2074.0
Jerrome Covotto,jcovotto2n,Ng4HuMF7k8h,1516.0
Art Kingaby,akingaby2o,iiYjWacqih6K,8913.9345238379
Thorn Gason,tgason2p,k2RKkT2wV0f,7109.0
Shawn Vitet,svitet2q,GPZDOKMPv,4993.0
Elladine Cordelette,ecordelette2r,c6xdHlmZE,9960.0
